/home/rahul/build-LOGIN-PAGE-Desktop-Debug/project5characterdriver/basic/rahul.ko
/home/rahul/build-LOGIN-PAGE-Desktop-Debug/project5characterdriver/basic/sopen.o /home/rahul/build-LOGIN-PAGE-Desktop-Debug/project5characterdriver/basic/write.o /home/rahul/build-LOGIN-PAGE-Desktop-Debug/project5characterdriver/basic/read2.o /home/rahul/build-LOGIN-PAGE-Desktop-Debug/project5characterdriver/basic/init.o /home/rahul/build-LOGIN-PAGE-Desktop-Debug/project5characterdriver/basic/ioctl.o /home/rahul/build-LOGIN-PAGE-Desktop-Debug/project5characterdriver/basic/scullseek.o /home/rahul/build-LOGIN-PAGE-Desktop-Debug/project5characterdriver/basic/close.o /home/rahul/build-LOGIN-PAGE-Desktop-Debug/project5characterdriver/basic/exitt.o

